Entrega 1. Modelos de regresión lineal
…
Otra forma de agrupar las casas es según la ubicación
(Neighborhood), ya que este factor influye en los precios.

# Agrupar por vecindario y calcular estadísticas básicas
neighborhood_summary <- train %>%
  group_by(Neighborhood) %>%
  summarise(AvgPrice = mean(SalePrice, na.rm = TRUE),
            MedianPrice = median(SalePrice, na.rm = TRUE),
            Count = n()) %>%
  arrange(desc(AvgPrice))

print(neighborhood_summary)

## # A tibble: 25 × 4
##    Neighborhood AvgPrice MedianPrice Count
##    <fct>           <dbl>       <dbl> <int>
##  1 NoRidge       335295.      301500    41
##  2 NridgHt       316271.      315000    77
##  3 StoneBr       310499       278000    25
##  4 Timber        242247.      228475    38
##  5 Veenker       238773.      218000    11
##  6 Somerst       225380.      225500    86
##  7 ClearCr       212565.      200250    28
##  8 Crawfor       210625.      200624    51
##  9 CollgCr       197966.      197200   150
## 10 Blmngtn       194871.      191000    17
## # ℹ 15 more rows
…
